{
    "baseUrl": "https://cpstaging.grocery.rideairlift.com/",
    "viewportWidth": 2024,
    "viewportHeight": 1068,
    "reporter": "cypress-multi-reporters",
    "reporterOptions": {
        "reporterEnabled": "mochawesome",
        "mochawesomeReporterOptions": {
            "reportDir": "cypress/reports/mocha",
            "quite": true,
            "overwrite": false,
            "html": true,
            "json": true
        }
    }
}
